title_id,title,artist,main_image,duplicate,main_image_base
14a84137-e4e0-5de3-9305-670a5025cbfa,Covid19,Sniqus,14a84137-e4e0-5de3-9305-670a5025cbfa.jpg,False,14a84137-e4e0-5de3-9305-670a5025cbfa.jpg
8750a527-1d0d-5021-91c9-89151e8cca5d,Grandpa,August Vilella,8750a527-1d0d-5021-91c9-89151e8cca5d.jpg,False,8750a527-1d0d-5021-91c9-89151e8cca5d.jpg
5c9c706e-b3d9-5d10-ac82-eb5a3b77ee9f,Alice,August Vilella,5c9c706e-b3d9-5d10-ac82-eb5a3b77ee9f.jpg,False,5c9c706e-b3d9-5d10-ac82-eb5a3b77ee9f.jpg
ca2d67cb-23c7-516e-b845-5762bcdbf3ee,Sakura,August Vilella,ca2d67cb-23c7-516e-b845-5762bcdbf3ee.jpg,False,ca2d67cb-23c7-516e-b845-5762bcdbf3ee.jpg
bb4d2818-cbe5-5a78-abd0-a0d8c0fabf48,Contaminated,Sniqus,bb4d2818-cbe5-5a78-abd0-a0d8c0fabf48.jpg,False,bb4d2818-cbe5-5a78-abd0-a0d8c0fabf48.jpg
f1d8ac6a-36ae-527d-8f22-a9032eae53f2,The Guardian,Sniqus,f1d8ac6a-36ae-527d-8f22-a9032eae53f2.jpg,False,f1d8ac6a-36ae-527d-8f22-a9032eae53f2.jpg
2e67ac76-c071-5521-bab8-2514bf84d0c7,Hipocondriac,Sniqus,2e67ac76-c071-5521-bab8-2514bf84d0c7.jpg,False,2e67ac76-c071-5521-bab8-2514bf84d0c7.jpg
bcfc3edb-3dd0-5022-adb7-fb66fee89775,Indian,Sniqus,bcfc3edb-3dd0-5022-adb7-fb66fee89775.jpg,False,bcfc3edb-3dd0-5022-adb7-fb66fee89775.jpg
facddb5d-d40a-51b9-99a2-5d8fb8bed4fb,Hope,August Vilella,facddb5d-d40a-51b9-99a2-5d8fb8bed4fb.jpg,False,facddb5d-d40a-51b9-99a2-5d8fb8bed4fb.jpg
f24d304c-05fa-5f33-ac63-4253842df67a,The Lesson ,August Vilella,f24d304c-05fa-5f33-ac63-4253842df67a.jpg,False,f24d304c-05fa-5f33-ac63-4253842df67a.jpg
3e078542-84f6-5699-b5d8-ba0a83275e88,Together ,August Vilella,3e078542-84f6-5699-b5d8-ba0a83275e88.jpg,False,3e078542-84f6-5699-b5d8-ba0a83275e88.jpg
ed2f9657-a1cf-5cfb-9072-d4daec5f948b,Good Night,August Vilella,ed2f9657-a1cf-5cfb-9072-d4daec5f948b.jpg,False,ed2f9657-a1cf-5cfb-9072-d4daec5f948b.jpg
aae545ef-c9c2-5e00-b273-d60ee9d67a6e,Care,August Vilella,aae545ef-c9c2-5e00-b273-d60ee9d67a6e.jpg,False,aae545ef-c9c2-5e00-b273-d60ee9d67a6e.jpg
95366647-73cf-50b9-99a5-c0353c3993bb,Awakening of the new era,Sniqus,95366647-73cf-50b9-99a5-c0353c3993bb.jpg,False,95366647-73cf-50b9-99a5-c0353c3993bb.jpg
50883a5d-953e-5044-9190-6a33be643a09,Inside,Sniqus,50883a5d-953e-5044-9190-6a33be643a09.jpg,False,50883a5d-953e-5044-9190-6a33be643a09.jpg
f66ecbcb-0416-5242-8c4a-0aba49871ea1,Untitled,Muñecojon,ecd88ce4-1fd0-519d-962e-7f4b2d10b32d.jpg,False,ecd88ce4-1fd0-519d-962e-7f4b2d10b32d.jpg
3a2a7bfa-5ebf-5f3f-86b3-65e5e9b87f37,Untitled,Muñecojon,6b191dd2-de10-523a-aae8-d79a8184b0e2.jpg,False,6b191dd2-de10-523a-aae8-d79a8184b0e2.jpg
188a2f8c-f137-581d-909c-f41088515514,Untitled,Muñecojon,bdc4fc76-7bf9-5bca-992c-ed3575d89ba2.jpg,False,bdc4fc76-7bf9-5bca-992c-ed3575d89ba2.jpg
b498ffe0-af54-52aa-b42d-c09006d1a906,Swinging Moon,August Vilella,f1f11c4b-1963-5a3e-ae7a-6054efaf51e2.jpg,False,f1f11c4b-1963-5a3e-ae7a-6054efaf51e2.jpg
d737b6a5-4f25-5036-9f9b-e8dd0f763fbb,We Arrived ,August Vilella,04b6cae7-a6b3-5af6-94ff-bbc8047582fa.jpg,False,04b6cae7-a6b3-5af6-94ff-bbc8047582fa.jpg
8466d7e0-c48e-5ac4-b50e-6a765de3f69a,Always with me,August Vilella,cf06ac0f-23ca-55e7-ad8c-edb96fe02aed.jpg,False,cf06ac0f-23ca-55e7-ad8c-edb96fe02aed.jpg
97490230-82d0-5033-8b12-c509ffe8706b,Cosmos,August Vilella,621d606d-2d3a-5e45-9685-d6df69d1cfd2.jpg,False,621d606d-2d3a-5e45-9685-d6df69d1cfd2.jpg
9cdb464e-2969-51aa-8762-7a142c90e57a,Hug,August Vilella,d5c0301e-aedd-5f26-9c19-82c091b98cf8.jpg,False,d5c0301e-aedd-5f26-9c19-82c091b98cf8.jpg
10f28b62-d98b-504c-8e7c-8a140eca11ed,Bee,August Vilella,25c6e6fb-9003-5256-ada4-e59c843dbc34.jpg,False,25c6e6fb-9003-5256-ada4-e59c843dbc34.jpg
96652fd6-3ec2-5f03-866d-a7c547b69b94,Romance ,August Vilella,e9e81b55-319c-50b0-93fe-97cb878981e4.jpg,False,e9e81b55-319c-50b0-93fe-97cb878981e4.jpg
28bbc004-3dd8-53ed-a4ae-408c34f1e9e2,Serenity ,August Vilella,f5115c2a-6d7a-56cd-9744-837a036ecbce.jpg,False,f5115c2a-6d7a-56cd-9744-837a036ecbce.jpg
7799c517-9a82-5199-b279-6c219572a590,Tale,August Vilella,4568441d-70e9-59ef-9df5-7e3a8f4a6c00.jpg,False,4568441d-70e9-59ef-9df5-7e3a8f4a6c00.jpg
eddb82aa-0415-5001-812d-7d62a6c2b185,My Firth Birthday ,August Vilella,95dab11b-f80e-5888-abbd-c2bcccfc111b.jpg,False,95dab11b-f80e-5888-abbd-c2bcccfc111b.jpg
0896b112-9ab5-57dc-b9de-1adfe61c44ba,Pinky Love,August Vilella,b58f78c9-0048-5000-aabd-60f2c0556d4c.jpg,False,b58f78c9-0048-5000-aabd-60f2c0556d4c.jpg
e3d03fb9-4043-5d40-b28f-2073416e1d80,GoldenOxSpirit,Arol,7cbe877f-00a3-5b5c-b64b-74ca5c0f111d.png,False,7cbe877f-00a3-5b5c-b64b-74ca5c0f111d.png
8fc859d4-a20a-5f02-a610-2f8c4b65b2c0,HeartbeatJuice,Arol,b39454b6-9234-59ef-a1e5-0984ed5a9d57.png,False,b39454b6-9234-59ef-a1e5-0984ed5a9d57.png
6beaa177-a864-5292-81ca-127203635337,Eight,Arol,ee65fd05-540e-59a0-8a9c-8f691f4a2772.png,False,ee65fd05-540e-59a0-8a9c-8f691f4a2772.png
f62370e2-e334-5aa8-aad7-dfbb4a2a08c8,SixNine,Arol,17b312a9-3c1e-598b-b2c6-0ed314fa601b.png,False,17b312a9-3c1e-598b-b2c6-0ed314fa601b.png
8be0b1a1-b344-57ff-9428-6a835ffddb1f,SixSixSix,Arol,3731716b-157e-5e53-b787-33d15e7040a5.png,False,3731716b-157e-5e53-b787-33d15e7040a5.png
ad614426-172e-5dc9-be02-a7eaa0182365,OnionBaby,Arol,a51c32da-08e6-516c-bc42-b386a2505334.png,False,a51c32da-08e6-516c-bc42-b386a2505334.png
20e4abc8-faeb-533d-bd51-46570f8daadd,AppleGirl,Arol,b7681575-830a-52fc-947d-6c41a450dc62.jpg,False,b7681575-830a-52fc-947d-6c41a450dc62.jpg
87c6df76-e498-51e8-8c6d-e70079be7e5d,AirHeady,Arol,429c2b3f-a2bd-5fba-85a8-615358433f16.png,False,429c2b3f-a2bd-5fba-85a8-615358433f16.png
24e09a79-2969-5246-8f5e-3be61877f4f3,Golden ox,Sniqus,125ac4f0-6557-57c9-9caf-9d009d69b930.jpg,False,125ac4f0-6557-57c9-9caf-9d009d69b930.jpg
38ce7a0b-c912-51ec-a220-66b7d2ece7ba,"Animal instinct
Animal instinct",Sniqus,bbdb0fc5-6174-5efa-94c3-a2af2cec58fa.jpg,False,bbdb0fc5-6174-5efa-94c3-a2af2cec58fa.jpg
21fc19fd-6f8c-5781-b85f-d81a00a071e9,My secret place,Sniqus,d7cca7a6-a4c0-5e58-8f63-e43b7c1c73cb.jpg,False,d7cca7a6-a4c0-5e58-8f63-e43b7c1c73cb.jpg
20a6e714-8d37-54a5-95f6-b51103f89b4f,Golden ox ,Sniqus,b26de925-ec26-5db1-ae52-83e50a2a9c08.jpg,False,b26de925-ec26-5db1-ae52-83e50a2a9c08.jpg
e87c15d2-21d0-5b7c-814b-906b33ebae90,Love,August Vilella,0faf51c5-094f-51f4-b2f9-fb461265dd3e.jpg,False,0faf51c5-094f-51f4-b2f9-fb461265dd3e.jpg
cdeef77d-2586-5deb-a5a0-abd22b1ebcd5,DescentOfTrumpeterAngel,Arol,3ffa6243-8ba6-5435-bf43-727ee346ebb7.png,False,3ffa6243-8ba6-5435-bf43-727ee346ebb7.png
1b62a209-0680-5c7b-9466-7663e9d81259,TrumpeterAngel,Arol,55ad3ae8-06ec-53c2-850c-7b98380c90c6.png,False,55ad3ae8-06ec-53c2-850c-7b98380c90c6.png
a77b67d1-0891-5e77-bc12-a755386fa60e,TeaTime,Arol,972e8d69-6984-5e6a-a37c-a70982081f3f.png,False,972e8d69-6984-5e6a-a37c-a70982081f3f.png
a64538e0-7870-58e3-9645-531b386c1a9b,RiderRabbit,Arol,71f9c044-729a-5b3d-8ca3-2a468072e97c.png,False,71f9c044-729a-5b3d-8ca3-2a468072e97c.png
d719df83-a360-5e72-9107-f90989243770,RogueSpirit,Arol,4a26971d-649c-5581-a524-deb41b62a69b.png,False,4a26971d-649c-5581-a524-deb41b62a69b.png
738fa475-0590-5833-b8d6-17c04e0d4654,Anima,Arol,0e076ada-e741-520a-9e7d-b54ae3d2161f.jpg,False,0e076ada-e741-520a-9e7d-b54ae3d2161f.jpg
bb3a8008-ba9f-54d6-ab2d-bfe4c473cb35,Animus,Arol,47c58d9c-d285-5c87-8fff-7d1e4c11d9d9.jpg,False,47c58d9c-d285-5c87-8fff-7d1e4c11d9d9.jpg
e1970a15-2465-5900-a9ac-27d37f0d0525,BirthUnderSaturn,Arol,eb50ef5a-0a26-5f1a-b8ee-cad2927c04b7.png,False,eb50ef5a-0a26-5f1a-b8ee-cad2927c04b7.png
17a83767-3bb1-5756-ac42-569b19484523,GoldenOxBaby,Arol,43d5a3cd-8788-5370-a320-7805982dc675.png,False,43d5a3cd-8788-5370-a320-7805982dc675.png
db781f86-86fa-5efc-b837-b83ee7388f97,OpenMind,Arol,e3fdb147-3b1d-5b20-9c64-b85e59d2c31a.png,False,e3fdb147-3b1d-5b20-9c64-b85e59d2c31a.png
b9c7d7ff-163c-581b-80e9-a6b5f53a4787,Biker,Sniqus,1f9a3834-82bc-50d9-b185-1f781c788e9b.jpg,False,1f9a3834-82bc-50d9-b185-1f781c788e9b.jpg
26e77a59-23b0-5915-9822-8650d575d9b8,Perdil ,Sniqus,4c793203-fe46-550b-946d-9687aee42551.jpg,False,4c793203-fe46-550b-946d-9687aee42551.jpg
12d81c63-51a6-5295-a35f-56d44efa86a2,Untitled,Muñecojon,8a8b16d3-fb31-5d40-9af0-d68dbb922469.jpg,False,8a8b16d3-fb31-5d40-9af0-d68dbb922469.jpg
bd7ed037-13fe-584b-ab88-a98cafa28b08,Untitled,Muñecojon,a155a891-d672-57db-bbe4-8c3dc5127325.jpg,False,a155a891-d672-57db-bbe4-8c3dc5127325.jpg
6b7632b3-e1a0-5214-8bc8-37b913180a6a,Untitled,Muñecojon,2b98ffeb-3577-5ae9-9e4c-b858ee5f469c.jpg,False,2b98ffeb-3577-5ae9-9e4c-b858ee5f469c.jpg
a3b5eccf-98be-55e3-b13a-243f66549d44,Untitled,Muñecojon,2031da2a-dd51-50c2-8e51-126634a6a9f3.jpg,False,2031da2a-dd51-50c2-8e51-126634a6a9f3.jpg
a4018340-35ab-596e-83e1-4d87b461ee88,Untitled,Muñecojon,869b1790-1793-5aaa-90ed-83b42256546c.jpg,False,869b1790-1793-5aaa-90ed-83b42256546c.jpg
133c34c5-23c4-51e8-8505-e11cb79ff18b,Untitled,Muñecojon,ee12599f-1b65-546b-8117-d2e85641bad5.jpg,False,ee12599f-1b65-546b-8117-d2e85641bad5.jpg
bedbe96d-0fba-5f93-b82b-bb518424e8fa,Untitled,Muñecojon,8804a433-60d6-5618-9ec8-89108f2f8787.jpg,False,8804a433-60d6-5618-9ec8-89108f2f8787.jpg
a5b564a4-4f5e-54d6-a651-1892ef1f3c3d,Untitled,Muñecojon,0bd45024-f021-5d9c-b407-678a430fa629.jpg,False,0bd45024-f021-5d9c-b407-678a430fa629.jpg
e8875a23-4b05-51f2-82b3-cd532118b3f6,The Writer ,August Vilella,6f48e914-842c-5e80-9981-fbfd24a10964.jpg,False,6f48e914-842c-5e80-9981-fbfd24a10964.jpg
5934f1a7-0551-54a4-95ff-9ea6cd5f1fca,The Crab,August Vilella,b84eb46d-cdb2-53e0-a5ad-560688f0f4d7.jpg,False,b84eb46d-cdb2-53e0-a5ad-560688f0f4d7.jpg
f152c631-0b26-52cb-a0a4-05b2822265f4,The Lizard ,August Vilella,f091ac40-2620-5d54-b337-3186abb48477.jpg,False,f091ac40-2620-5d54-b337-3186abb48477.jpg
d8d820c8-d87d-59b1-bf97-42aaf9842cdd,Forever Together ,August Vilella,8c9c80b5-3b28-52a5-ad07-236978246fc2.jpg,False,8c9c80b5-3b28-52a5-ad07-236978246fc2.jpg
b01769c2-4890-5bd0-a4aa-2a7a4905b3ef,Sailor’s Dream,August Vilella,588023ef-b69e-578d-b284-8673675e36db.jpg,False,588023ef-b69e-578d-b284-8673675e36db.jpg
b63a83c0-b385-5e65-b4cb-0b76e596f8d7,Autumn evening ,August Vilella,cf372637-e5d5-592f-9ed1-fe81ca1f9cc7.jpg,False,cf372637-e5d5-592f-9ed1-fe81ca1f9cc7.jpg
87418e66-3655-5034-81ce-7bc7ba984629,Golden Carp,August Vilella,6d4a99f5-32db-5f5c-8ada-d57bae7cf45b.jpg,False,6d4a99f5-32db-5f5c-8ada-d57bae7cf45b.jpg
fe4ee756-6a92-53d7-aeaa-9882c8cada6c,Good morning ,August Vilella,64f7a67b-4606-555f-bd55-0121d4919089.jpg,False,64f7a67b-4606-555f-bd55-0121d4919089.jpg
1f084383-b44a-5227-84d7-03e461f74e71,My first Sant Valentine,August Vilella,ae97b283-3ab5-5052-89b7-a0b5a666c043.jpg,False,ae97b283-3ab5-5052-89b7-a0b5a666c043.jpg
16c5c62e-1d8f-5deb-b097-4edddc1cde07,Warm home,August Vilella,5620504d-c8d5-581a-bbf4-e8f5eb7f85ee.jpg,False,5620504d-c8d5-581a-bbf4-e8f5eb7f85ee.jpg
923128fa-1640-5c78-af1d-adefc5f18883,Lake friends ,August Vilella,253dc9c7-58ec-5782-b034-26c353827aff.jpg,False,253dc9c7-58ec-5782-b034-26c353827aff.jpg
637cdf0c-d725-5af1-a5d7-ce7327860339,Party ,August Vilella,4edc7ecd-b6f1-5679-b7f3-21aca96860e4.jpg,False,4edc7ecd-b6f1-5679-b7f3-21aca96860e4.jpg
6df9231b-0377-5966-94fc-85007e8e9a84,The Apple ,August Vilella,b1a4c52b-44ec-520e-8378-0bfda59a15f2.jpg,False,b1a4c52b-44ec-520e-8378-0bfda59a15f2.jpg
8a98d42c-639b-5077-aea4-fc0d2211b5b3,Winter Kitten ,August Vilella,bdc40e52-0fad-5116-ac03-a1c6d4e023f7.jpg,False,bdc40e52-0fad-5116-ac03-a1c6d4e023f7.jpg
