id,artwork_title_id,action,record_datetime,location_country,location_city,title,description,has_filename,filename,sale_price,sale_curr,user_id,created,filename_url,filename_pdf_url,filename_video_url
0,14a84137-e4e0-5de3-9305-670a5025cbfa,1,2020-08-05 05:43:13.164,Spain,Barcelona,Painting listed,,f,,0,USD,1.0,2020-08-08 00:00:00,,,
1,8750a527-1d0d-5021-91c9-89151e8cca5d,1,2020-08-05 05:43:13.164,China,Shanghai,Painting listed,,f,,0,USD,1.0,2020-08-08 00:00:00,,,
2,5c9c706e-b3d9-5d10-ac82-eb5a3b77ee9f,1,2020-08-05 05:43:13.164,Hong Kong,Hong Kong,Painting listed,,f,,0,USD,1.0,2020-08-08 00:00:00,,,
3,ca2d67cb-23c7-516e-b845-5762bcdbf3ee,1,2020-08-05 05:43:13.164,China,Shanghai,Painting listed,,f,,0,USD,1.0,2020-08-08 00:00:00,,,
4,bb4d2818-cbe5-5a78-abd0-a0d8c0fabf48,1,2020-08-05 05:43:13.164,Spain,Barcelona,Painting listed,,f,,0,USD,1.0,2020-08-08 00:00:00,,,
5,ca2d67cb-23c7-516e-b845-5762bcdbf3ee,2,2020-08-07 03:47:41.188,China,Shanghai,China TV,In China TV,t,d505301e-ae22-4ae3-b176-de707bcf7579.jpg,0,,8.0,2020-08-08 00:00:00,https://provenance-pics-db.artshield.cn/d505301e-ae22-4ae3-b176-de707bcf7579.jpg,,
6,ca2d67cb-23c7-516e-b845-5762bcdbf3ee,2,2020-08-07 03:51:33.681,China,Shanghai,In Beautiful Bizzare magazine ,In Beautiful Bizzare magazine  ,t,08ae0a2a-1bc8-4e0a-b005-be2953560213.jpg,0,,8.0,2020-08-08 00:00:00,https://provenance-pics-db.artshield.cn/08ae0a2a-1bc8-4e0a-b005-be2953560213.jpg,,
7,f1d8ac6a-36ae-527d-8f22-a9032eae53f2,1,2020-08-27 05:02:51.164,Spain,Barcelona,Painting listed,,f,,0,USD,1.0,2020-08-08 00:00:00,,,
8,2e67ac76-c071-5521-bab8-2514bf84d0c7,1,2020-08-27 05:02:51.164,Spain,Barcelona,Painting listed,,f,,0,USD,1.0,2020-08-08 00:00:00,,,
9,bcfc3edb-3dd0-5022-adb7-fb66fee89775,1,2020-08-27 05:02:51.164,Spain,Barcelona,Painting listed,,f,,0,USD,1.0,2020-08-08 00:00:00,,,
10,facddb5d-d40a-51b9-99a2-5d8fb8bed4fb,1,2020-08-27 05:02:51.164,China,Shanghai,Painting listed,,f,,0,USD,1.0,2020-08-08 00:00:00,,,
11,f24d304c-05fa-5f33-ac63-4253842df67a,1,2020-08-27 05:02:51.164,China,Shanghai,Painting listed,,f,,0,USD,1.0,2020-08-08 00:00:00,,,
12,3e078542-84f6-5699-b5d8-ba0a83275e88,1,2020-08-27 05:02:51.164,China,Shanghai,Painting listed,,f,,0,USD,1.0,2020-08-08 00:00:00,,,
13,ed2f9657-a1cf-5cfb-9072-d4daec5f948b,1,2020-08-27 05:02:51.164,China,Shanghai,Painting listed,,f,,0,USD,1.0,2020-08-08 00:00:00,,,
14,aae545ef-c9c2-5e00-b273-d60ee9d67a6e,1,2020-08-27 05:02:51.164,China,Shanghai,Painting listed,,f,,0,USD,1.0,2020-08-08 00:00:00,,,
15,95366647-73cf-50b9-99a5-c0353c3993bb,1,2020-08-27 05:02:51.164,Spain,Barcelona,Painting listed,,f,,0,USD,1.0,2020-08-08 00:00:00,,,
16,50883a5d-953e-5044-9190-6a33be643a09,1,2020-08-27 05:02:51.164,Spain,Barcelona,Painting listed,,f,,0,USD,1.0,2020-08-08 00:00:00,,,
17,95366647-73cf-50b9-99a5-c0353c3993bb,2,2020-08-28 13:41:57.479,Spain,Sabadell,Shanghai Poetry Zine,The painting has appeared in the art and poetry magazine Shanghai Poetry Zine,t,b45a2be0-4b9f-4163-82c8-9a70d8abaa31.jpg,0,,7.0,2020-08-08 00:00:00,https://provenance-pics-db.artshield.cn/b45a2be0-4b9f-4163-82c8-9a70d8abaa31.jpg,,
18,ca2d67cb-23c7-516e-b845-5762bcdbf3ee,2,2020-09-17 04:18:08.468,Japan,Nakano-Ku,“Spring Sakura” image in Shibuya Tokyo metro,"“Spring Sakura” image in Shibuya Tokyo metro
",t,165b015f-0b8f-4931-96f1-e2da40a01341.jpg,0,,8.0,2020-08-08 00:00:00,https://provenance-pics-db.artshield.cn/165b015f-0b8f-4931-96f1-e2da40a01341.jpg,,
